> HospitalCosts = read.csv(file= choose.files())
> 
> library(tidyverse)
> 
> hosp = as_tibble(HospitalCosts)
> 
> #Visually inspecting the data
> hosp
# A tibble: 500 x 6
     AGE FEMALE   LOS  RACE TOTCHG APRDRG
   <int>  <int> <int> <int>  <int>  <int>
 1    17      1     2     1   2660    560
 2    17      0     2     1   1689    753
 3    17      1     7     1  20060    930
 4    17      1     1     1    736    758
 5    17      1     1     1   1194    754
 6    17      0     0     1   3305    347
 7    17      1     4     1   2205    754
 8    16      1     2     1   1167    754
 9    16      1     1     1    532    753
10    17      1     2     1   1363    758
# ... with 490 more rows
…
