…
Residual standard error: 71270 on 2179 degrees of freedom
Multiple R-squared:  0.9951,	Adjusted R-squared:  0.9951 
F-statistic: 2.211e+05 on 2 and 2179 DF,  p-value: < 2.2e-16

> remove(formula_string)
> library(dplyr)
> data %>% 
+   group_by(Zone, Kilometres, Bonus) %>%
+   summarise(max.Insured = max(Insured), max.claims = max(Claims), max.payment = max(Payment)) %>%
+   arrange(desc(max.payment, max.claims, max.Insured))
# A tibble: 245 x 6
# Groups:   Zone, Kilometres [35]
    Zone Kilometres Bonus max.Insured max.claims max.payment
   <int>      <int> <int>       <dbl>      <dbl>       <dbl>
 1     4          2     7     121293.       3338    18245026
 2     4          1     7     127687.       2894    15540162
 3     4          3     7      79615.       2548    13203616
 4     3          2     7      60140.       2044    10518198
 5     1          2     7      44511.       2127    10315455
 6     2          2     7      54421.       2087     9950131
 7     3          1     7      65617.       1865     9884008
 8     1          1     7      48265.       1875     8977527
 9     2          1     7      55085.       1744     8500391
10     3          3     7      36595.       1462     7765626
# ... with 235 more rows
…
